<svg width="53" height="44" viewBox="0 0 53 44" fill="none" xmlns="http://www.w3.org/2000/svg">
<path d="M1.21978 6.56764C-5.17306 16.5426 15.1755 36.3339 24.8572 43.2299C25.5282 43.7079 26.4163 43.6903 27.0885 43.2141C33.4759 38.6891 44.2835 30.7074 47.4038 26.9516C52.946 20.2805 55.7901 9.00729 49.1396 4.18926C42.4891 -0.628765 30.408 -0.10348 25.9743 7.30887C25.9743 0.267136 8.30631 -4.48969 1.21978 6.56764Z" fill="#FF7466"/>
<path d="M42.6863 24.5032C44.1316 22.7868 45.5466 20.8856 45.9623 18.6739C46.0902 18.0648 46.1106 17.3785 45.7766 16.8451C45.1087 15.7784 43.5137 16.0016 42.3979 16.6018C40.3697 17.6548 38.8811 19.4543 37.4848 21.2386C33.7596 25.9464 26.6093 35.9199 27.5241 36.7566C29.8328 38.8066 41.0865 26.4347 42.6863 24.5032Z" fill="#F1A8B0"/>
</svg>
