<svg width="52" height="52" viewBox="0 0 52 52" fill="none" xmlns="http://www.w3.org/2000/svg">
<path d="M26 52C40.3594 52 52 40.3594 52 26C52 11.6406 40.3594 0 26 0C11.6406 0 0 11.6406 0 26C0 40.3594 11.6406 52 26 52Z" fill="#FA7A68"/>
<path d="M15.6993 34.2106C16.0916 34.2106 16.4565 34.0372 16.7302 33.7453C19.0747 31.2092 22.3954 29.6674 25.9898 29.6674C29.5842 29.6674 32.914 31.2092 35.2495 33.7453C35.514 34.0372 35.8789 34.2106 36.2803 34.2106H36.2895C37.4663 34.2106 38.1323 32.7965 37.3295 31.9299C34.4831 28.8099 30.3961 26.9306 25.9898 26.9306C21.6017 26.9306 17.5147 28.819 14.6593 31.9299C13.8565 32.7965 14.5133 34.2106 15.6993 34.2106Z" fill="#fff"/>
<path d="M21.4469 18.8295C21.4469 20.5081 20.0876 21.8674 18.409 21.8674C16.7304 21.8674 15.3711 20.5081 15.3711 18.8295C15.3711 17.1509 16.7304 15.7916 18.409 15.7916C20.0876 15.7825 21.4469 17.1418 21.4469 18.8295Z" fill="#fff"/>
<path d="M30.5698 18.8295C30.5698 20.5081 31.9291 21.8674 33.6077 21.8674C35.2863 21.8674 36.6456 20.5081 36.6456 18.8295C36.6456 17.1509 35.2863 15.7916 33.6077 15.7916C31.9382 15.7825 30.5698 17.1418 30.5698 18.8295Z" fill="#fff"/>
</svg>
