<svg width="72" height="72" viewBox="0 0 72 72" fill="none" xmlns="http://www.w3.org/2000/svg">
<circle cx="36" cy="36" r="31" stroke="white" stroke-width="10"/>
<rect x="53.4043" y="11.6526" width="10" height="59" transform="rotate(45 53.4043 11.6526)" fill="white"/>
</svg>
