<svg width="17" height="19" viewBox="0 0 17 19" fill="none" xmlns="http://www.w3.org/2000/svg">
<circle cx="7.5" cy="7.66309" r="6.5" stroke="#FF7466" stroke-width="2"/>
<line x1="12.4056" y1="13.3193" x2="15.1562" y2="16.7575" stroke="#FF7466" stroke-width="2" stroke-linecap="round" stroke-linejoin="round"/>
</svg>
