<svg width="15" height="24" viewBox="0 0 15 24" fill="none" xmlns="http://www.w3.org/2000/svg">
<path d="M10.8739 8.61441C12.7122 6.99128 15 4.91431 15 1.70616C15 0.763874 14.2361 0 13.2938 0H7.5H1.70616C0.763875 0 0 0.763874 0 1.70616C0 4.91431 2.28778 6.99128 4.12611 8.61441C5.48889 9.81725 6.66667 10.8569 6.66667 12C6.66667 13.1431 5.48889 14.1827 4.12611 15.3856C2.28778 17.0087 0 19.0857 0 22.2938C0 23.2361 0.763875 24 1.70616 24H7.5H13.2938C14.2361 24 15 23.2361 15 22.2938C15 19.0857 12.7122 17.0087 10.8739 15.3856C9.51111 14.1827 8.33333 13.1431 8.33333 12C8.33333 10.8569 9.51111 9.81725 10.8739 8.61441Z" fill="#51C26A"/>
</svg>
